EESchema Schematic File Version 2
LIBS:power
LIBS:device
LIBS:transistors
LIBS:conn
LIBS:linear
LIBS:regul
LIBS:74xx
LIBS:cmos4000
LIBS:adc-dac
LIBS:memory
LIBS:xilinx
LIBS:microcontrollers
LIBS:dsp
LIBS:microchip
LIBS:analog_switches
LIBS:motorola
LIBS:texas
LIBS:intel
LIBS:audio
LIBS:interface
LIBS:digital-audio
LIBS:philips
LIBS:display
LIBS:cypress
LIBS:siliconi
LIBS:opto
LIBS:atmel
LIBS:contrib
LIBS:valves
LIBS:pololu-drv8825
LIBS:drilling-controller-cache
EELAYER 25 0
EELAYER END
$Descr A4 8268 11693 portrait
encoding utf-8
Sheet 1 1
Title "Drilling Controller"
Date "2017-07-12"
Rev "1.1"
Comp "Baerberg's Busy Bees"
Comment1 ""
Comment2 ""
Comment3 ""
Comment4 ""
$EndDescr
Text Label 5150 1550 1    60   ~ 0
RAW
Text Label 4350 1050 1    60   ~ 0
DTR
Text Label 4550 1050 1    60   ~ 0
0(Rx)
Text Label 3800 1650 0    60   ~ 0
1(Tx)
Text Label 3800 1750 0    60   ~ 0
0(Rx)
Text Label 3800 1850 0    60   ~ 0
Reset
Text Label 5300 1850 0    60   ~ 0
Reset
Text Label 3800 2050 0    60   ~ 0
PD2
Text Label 3800 2150 0    60   ~ 0
OC2B
Text Label 3800 2250 0    60   ~ 0
PD4
Text Label 3800 2350 0    60   ~ 0
PD5
Text Label 3800 2450 0    60   ~ 0
PD6
Text Label 3800 2550 0    60   ~ 0
PD7
Text Label 3800 2650 0    60   ~ 0
PB0
Text Label 3800 2750 0    60   ~ 0
OC1A
Text Label 5200 2750 0    60   ~ 0
PB2
Text Label 5200 2650 0    60   ~ 0
OC2A
Text Label 5200 2550 0    60   ~ 0
PB4
Text Label 5200 2450 0    60   ~ 0
LED
Text Label 5200 2350 0    60   ~ 0
PC0
Text Label 5200 2250 0    60   ~ 0
PC1
Text Label 5200 2150 0    60   ~ 0
PC2
Text Label 5200 2050 0    60   ~ 0
PC3
Text Label 4450 3350 3    60   ~ 0
PC4
Text Label 4350 3350 3    60   ~ 0
PC5
Text Label 4750 3350 3    60   ~ 0
A7
Text Label 4850 3350 3    60   ~ 0
A6
$Comp
L CONN_01X02 P4
U 1 1 56D74FB3
P 4400 3150
F 0 "P4" H 4400 3300 50  0000 C CNN
F 1 "ADC" V 4500 3150 50  0000 C CNN
F 2 "Socket_Arduino_Pro_Mini:Socket_Strip_Arduino_1x02" H 4400 3150 50  0001 C CNN
F 3 "" H 4400 3150 50  0000 C CNN
	1    4400 3150
	0    -1   -1   0   
$EndComp
$Comp
L CONN_01X02 P5
U 1 1 56D7505C
P 4800 3150
F 0 "P5" H 4800 3300 50  0000 C CNN
F 1 "ADC" V 4900 3150 50  0000 C CNN
F 2 "Socket_Arduino_Pro_Mini:Socket_Strip_Arduino_1x02" H 4800 3150 50  0001 C CNN
F 3 "" H 4800 3150 50  0000 C CNN
	1    4800 3150
	0    -1   -1   0   
$EndComp
$Comp
L CONN_01X06 P1
U 1 1 56D75238
P 4600 1250
F 0 "P1" H 4600 1600 50  0000 C CNN
F 1 "COM" V 4700 1250 50  0000 C CNN
F 2 "Socket_Arduino_Pro_Mini:Socket_Strip_Arduino_1x06" H 4600 1250 50  0001 C CNN
F 3 "" H 4600 1250 50  0000 C CNN
	1    4600 1250
	0    -1   1    0   
$EndComp
Text Label 4450 1050 1    60   ~ 0
1(Tx)
$Comp
L GND #PWR6
U 1 1 56D7539A
P 5000 1050
F 0 "#PWR6" H 5000 800 50  0001 C CNN
F 1 "GND" H 5000 900 50  0000 C CNN
F 2 "" H 5000 1050 50  0000 C CNN
F 3 "" H 5000 1050 50  0000 C CNN
	1    5000 1050
	1    0    0    -1  
$EndComp
$Comp
L VCC #PWR5
U 1 1 56D753B8
P 4650 1050
F 0 "#PWR5" H 4650 900 50  0001 C CNN
F 1 "VCC" H 4650 1200 50  0000 C CNN
F 2 "" H 4650 1050 50  0000 C CNN
F 3 "" H 4650 1050 50  0000 C CNN
	1    4650 1050
	1    0    0    -1  
$EndComp
Wire Wire Line
	4750 1050 5000 1050
Connection ~ 4850 1050
$Comp
L CONN_01X12 P2
U 1 1 56D754D1
P 4350 2200
F 0 "P2" H 4350 2850 50  0000 C CNN
F 1 "Digital" V 4450 2200 50  0000 C CNN
F 2 "Socket_Arduino_Pro_Mini:Socket_Strip_Arduino_1x12" H 4350 2200 50  0001 C CNN
F 3 "" H 4350 2200 50  0000 C CNN
	1    4350 2200
	1    0    0    -1  
$EndComp
$Comp
L CONN_01X12 P3
U 1 1 56D755F3
P 4850 2200
F 0 "P3" H 4850 2850 50  0000 C CNN
F 1 "Analog" V 4950 2200 50  0000 C CNN
F 2 "Socket_Arduino_Pro_Mini:Socket_Strip_Arduino_1x12" H 4850 2200 50  0001 C CNN
F 3 "" H 4850 2200 50  0000 C CNN
	1    4850 2200
	-1   0    0    -1  
$EndComp
$Comp
L GND #PWR12
U 1 1 56D756B8
P 4100 3000
F 0 "#PWR12" H 4100 2750 50  0001 C CNN
F 1 "GND" H 4100 2850 50  0000 C CNN
F 2 "" H 4100 3000 50  0000 C CNN
F 3 "" H 4100 3000 50  0000 C CNN
	1    4100 3000
	1    0    0    -1  
$EndComp
Wire Wire Line
	4150 1950 4100 1950
Wire Wire Line
	4100 1950 4100 3000
Wire Wire Line
	4150 1650 3800 1650
Wire Wire Line
	3800 1750 4150 1750
Wire Wire Line
	4150 1850 3800 1850
Wire Wire Line
	3800 2050 4150 2050
Wire Wire Line
	4150 2250 3800 2250
Wire Wire Line
	2750 2350 4150 2350
Wire Wire Line
	2750 2450 4150 2450
Wire Wire Line
	2750 2550 4150 2550
Wire Wire Line
	2950 2650 4150 2650
Wire Wire Line
	2950 2750 4150 2750
Wire Wire Line
	5150 1550 5150 1650
Wire Wire Line
	5150 1650 5050 1650
Wire Wire Line
	5050 1750 5150 1750
Wire Wire Line
	5150 1750 5150 3000
$Comp
L GND #PWR13
U 1 1 56D75A03
P 5150 3000
F 0 "#PWR13" H 5150 2750 50  0001 C CNN
F 1 "GND" H 5150 2850 50  0000 C CNN
F 2 "" H 5150 3000 50  0000 C CNN
F 3 "" H 5150 3000 50  0000 C CNN
	1    5150 3000
	1    0    0    -1  
$EndComp
Wire Wire Line
	5050 1950 5250 1950
Wire Wire Line
	5250 1950 5250 1550
$Comp
L VCC #PWR7
U 1 1 56D75A9D
P 5250 1550
F 0 "#PWR7" H 5250 1400 50  0001 C CNN
F 1 "VCC" H 5250 1700 50  0000 C CNN
F 2 "" H 5250 1550 50  0000 C CNN
F 3 "" H 5250 1550 50  0000 C CNN
	1    5250 1550
	1    0    0    -1  
$EndComp
Wire Wire Line
	5050 1850 5300 1850
Wire Wire Line
	5300 2450 5050 2450
Wire Wire Line
	5050 2550 5500 2550
Wire Wire Line
	5050 2750 5400 2750
Text Notes 4450 1650 0    60   ~ 0
1
$Comp
L Q_NMOS_GDS Q2
U 1 1 5965C867
P 5700 4450
F 0 "Q2" V 5950 4400 50  0000 L CNN
F 1 "STP140NF75" V 5600 4600 50  0000 L CNN
F 2 "" H 5900 4550 50  0001 C CNN
F 3 "" H 5700 4450 50  0001 C CNN
	1    5700 4450
	0    1    1    0   
$EndComp
Wire Wire Line
	5500 4550 5150 4550
$Comp
L Screw_Terminal_1x02 J7
U 1 1 5965CDCA
P 5850 5600
F 0 "J7" H 5850 5850 50  0000 C TNN
F 1 "Drill motor" V 5700 5600 50  0000 C TNN
F 2 "" H 5850 5375 50  0001 C CNN
F 3 "" H 5825 5600 50  0001 C CNN
	1    5850 5600
	0    -1   -1   0   
$EndComp
Wire Wire Line
	5900 4550 5950 4550
Wire Wire Line
	4800 5000 5500 5000
Wire Wire Line
	5350 5000 5350 5400
$Comp
L Screw_Terminal_1x02 J6
U 1 1 5965D491
P 5250 5600
F 0 "J6" H 5250 5850 50  0000 C TNN
F 1 "Battery" V 5100 5600 50  0000 C TNN
F 2 "" H 5250 5375 50  0001 C CNN
F 3 "" H 5225 5600 50  0001 C CNN
	1    5250 5600
	0    -1   -1   0   
$EndComp
Wire Wire Line
	5350 5300 5750 5300
Wire Wire Line
	5750 5300 5750 5400
Wire Wire Line
	5150 4150 5150 5400
Wire Wire Line
	5950 4550 5950 5400
$Comp
L +BATT #PWR18
U 1 1 5965D6CB
P 4800 4900
F 0 "#PWR18" H 4800 4750 50  0001 C CNN
F 1 "+BATT" H 4800 5040 50  0000 C CNN
F 2 "" H 4800 4900 50  0001 C CNN
F 3 "" H 4800 4900 50  0001 C CNN
	1    4800 4900
	1    0    0    -1  
$EndComp
$Comp
L D D4
U 1 1 5965D842
P 5650 5000
F 0 "D4" H 5650 5100 50  0000 C CNN
F 1 "1N4007" H 5650 4900 50  0000 C CNN
F 2 "" H 5650 5000 50  0001 C CNN
F 3 "" H 5650 5000 50  0001 C CNN
	1    5650 5000
	1    0    0    -1  
$EndComp
Wire Wire Line
	5950 5000 5800 5000
Connection ~ 5950 5000
Connection ~ 5350 5300
Wire Wire Line
	4800 5200 5150 5200
Connection ~ 5150 5200
Wire Wire Line
	5050 2650 5700 2650
$Comp
L LED D2
U 1 1 5965EF43
P 5150 4000
F 0 "D2" H 5150 4100 50  0000 C CNN
F 1 "LED red" H 5150 3850 50  0000 C CNN
F 2 "" H 5150 4000 50  0001 C CNN
F 3 "" H 5150 4000 50  0001 C CNN
	1    5150 4000
	0    1    -1   0   
$EndComp
$Comp
L R R2
U 1 1 5965F09C
P 5450 3750
F 0 "R2" V 5530 3750 50  0000 C CNN
F 1 "270" V 5450 3750 50  0000 C CNN
F 2 "" V 5380 3750 50  0001 C CNN
F 3 "" H 5450 3750 50  0001 C CNN
	1    5450 3750
	0    1    1    0   
$EndComp
Wire Wire Line
	5700 3750 5600 3750
Connection ~ 5700 3750
Wire Wire Line
	5300 3750 5150 3750
Wire Wire Line
	5150 3750 5150 3850
Connection ~ 5150 4550
$Comp
L BC547 Q1
U 1 1 596601B5
P 3700 4450
F 0 "Q1" V 3950 4400 50  0000 L CNN
F 1 "BC547" V 3600 4600 50  0000 L CNN
F 2 "TO_SOT_Packages_THT:TO-92_Molded_Narrow" H 3900 4375 50  0001 L CIN
F 3 "" H 3700 4450 50  0001 L CNN
	1    3700 4450
	0    1    1    0   
$EndComp
Wire Wire Line
	3500 4550 3150 4550
$Comp
L Screw_Terminal_1x02 J5
U 1 1 59661069
P 3850 5600
F 0 "J5" H 3850 5850 50  0000 C TNN
F 1 "Lego motor" V 3700 5600 50  0000 C TNN
F 2 "" H 3850 5375 50  0001 C CNN
F 3 "" H 3825 5600 50  0001 C CNN
	1    3850 5600
	0    -1   -1   0   
$EndComp
Wire Wire Line
	3900 4550 3950 4550
Wire Wire Line
	2800 5000 3500 5000
Wire Wire Line
	3350 5000 3350 5400
$Comp
L Screw_Terminal_1x02 J4
U 1 1 59661071
P 3250 5600
F 0 "J4" H 3250 5850 50  0000 C TNN
F 1 "9V" V 3100 5600 50  0000 C TNN
F 2 "" H 3250 5375 50  0001 C CNN
F 3 "" H 3225 5600 50  0001 C CNN
	1    3250 5600
	0    -1   -1   0   
$EndComp
Wire Wire Line
	3350 5300 3750 5300
Wire Wire Line
	3750 5300 3750 5400
Wire Wire Line
	3150 4150 3150 5400
Wire Wire Line
	3950 4550 3950 5400
$Comp
L D D3
U 1 1 59661082
P 3650 5000
F 0 "D3" H 3650 5100 50  0000 C CNN
F 1 "1N4007" H 3650 4900 50  0000 C CNN
F 2 "" H 3650 5000 50  0001 C CNN
F 3 "" H 3650 5000 50  0001 C CNN
	1    3650 5000
	1    0    0    -1  
$EndComp
Wire Wire Line
	3950 5000 3800 5000
Connection ~ 3950 5000
Connection ~ 3350 5300
$Comp
L GND #PWR19
U 1 1 5966108C
P 2800 5300
F 0 "#PWR19" H 2800 5050 50  0001 C CNN
F 1 "GND" H 2800 5150 50  0000 C CNN
F 2 "" H 2800 5300 50  0001 C CNN
F 3 "" H 2800 5300 50  0001 C CNN
	1    2800 5300
	1    0    0    -1  
$EndComp
Connection ~ 3150 5200
$Comp
L LED D1
U 1 1 59661096
P 3150 4000
F 0 "D1" H 3150 4100 50  0000 C CNN
F 1 "LED green" H 3150 3850 50  0000 C CNN
F 2 "" H 3150 4000 50  0001 C CNN
F 3 "" H 3150 4000 50  0001 C CNN
	1    3150 4000
	0    1    -1   0   
$EndComp
$Comp
L R R1
U 1 1 5966109C
P 3450 3750
F 0 "R1" V 3530 3750 50  0000 C CNN
F 1 "120" V 3450 3750 50  0000 C CNN
F 2 "" V 3380 3750 50  0001 C CNN
F 3 "" H 3450 3750 50  0001 C CNN
	1    3450 3750
	0    1    1    0   
$EndComp
Wire Wire Line
	3700 3750 3600 3750
Connection ~ 3700 3750
Wire Wire Line
	3300 3750 3150 3750
Wire Wire Line
	3150 3750 3150 3850
Connection ~ 3150 4550
$Comp
L CONN_01X04 J2
U 1 1 596669C0
P 1050 2600
F 0 "J2" H 1050 2850 50  0000 C CNN
F 1 "Stepper Motor" V 1150 2600 50  0000 C CNN
F 2 "" H 1050 2600 50  0001 C CNN
F 3 "" H 1050 2600 50  0001 C CNN
	1    1050 2600
	-1   0    0    -1  
$EndComp
Wire Wire Line
	5050 2350 6600 2350
Wire Wire Line
	5050 2250 6600 2250
Wire Wire Line
	5050 2150 6600 2150
Wire Wire Line
	5050 2050 6600 2050
$Comp
L GND #PWR11
U 1 1 5966B45E
P 6500 2650
F 0 "#PWR11" H 6500 2400 50  0001 C CNN
F 1 "GND" H 6500 2500 50  0000 C CNN
F 2 "" H 6500 2650 50  0001 C CNN
F 3 "" H 6500 2650 50  0001 C CNN
	1    6500 2650
	1    0    0    -1  
$EndComp
$Comp
L VCC #PWR10
U 1 1 5966B49A
P 6300 2650
F 0 "#PWR10" H 6300 2500 50  0001 C CNN
F 1 "VCC" H 6300 2800 50  0000 C CNN
F 2 "" H 6300 2650 50  0001 C CNN
F 3 "" H 6300 2650 50  0001 C CNN
	1    6300 2650
	1    0    0    1   
$EndComp
Wire Wire Line
	6500 2650 6500 2550
Wire Wire Line
	6500 2550 6600 2550
Wire Wire Line
	6300 2650 6300 2450
Wire Wire Line
	6300 2450 6600 2450
NoConn ~ 3800 2050
NoConn ~ 3800 2250
NoConn ~ 4350 3350
NoConn ~ 4450 3350
NoConn ~ 4750 3350
NoConn ~ 4850 3350
$Comp
L +9V #PWR17
U 1 1 5966BF27
P 2800 4900
F 0 "#PWR17" H 2800 4750 50  0001 C CNN
F 1 "+9V" H 2800 5040 50  0000 C CNN
F 2 "" H 2800 4900 50  0001 C CNN
F 3 "" H 2800 4900 50  0001 C CNN
	1    2800 4900
	1    0    0    -1  
$EndComp
NoConn ~ 5300 2450
Wire Wire Line
	3700 2150 4150 2150
$Comp
L POLOLU-DRV8825 DRV1
U 1 1 5966E52E
P 2200 2600
F 0 "DRV1" H 2200 3050 60  0000 C CNN
F 1 "POLOLU-DRV8825" H 2200 2150 60  0000 C CNN
F 2 "" H 2150 2200 60  0000 C CNN
F 3 "" H 2150 2200 60  0000 C CNN
	1    2200 2600
	-1   0    0    -1  
$EndComp
Wire Wire Line
	2950 2650 2950 2250
Wire Wire Line
	2950 2250 2750 2250
Wire Wire Line
	2950 2750 2950 2850
Wire Wire Line
	2950 2850 2750 2850
Wire Wire Line
	5400 2750 5400 2850
Wire Wire Line
	5400 2850 3050 2850
$Comp
L VCC #PWR9
U 1 1 5966EE26
P 2850 2150
F 0 "#PWR9" H 2850 2000 50  0001 C CNN
F 1 "VCC" H 2850 2300 50  0000 C CNN
F 2 "" H 2850 2150 50  0001 C CNN
F 3 "" H 2850 2150 50  0001 C CNN
	1    2850 2150
	1    0    0    -1  
$EndComp
Wire Wire Line
	2850 2750 2750 2750
Wire Wire Line
	2850 2150 2850 2750
Wire Wire Line
	2750 2650 2850 2650
Connection ~ 2850 2650
Wire Wire Line
	3050 2850 3050 2950
Wire Wire Line
	3050 2950 2750 2950
Wire Wire Line
	1650 2350 1450 2350
Wire Wire Line
	1450 2350 1450 3100
$Comp
L GND #PWR14
U 1 1 5966F8EF
P 1450 3100
F 0 "#PWR14" H 1450 2850 50  0001 C CNN
F 1 "GND" H 1450 2950 50  0000 C CNN
F 2 "" H 1450 3100 50  0001 C CNN
F 3 "" H 1450 3100 50  0001 C CNN
	1    1450 3100
	1    0    0    -1  
$EndComp
Wire Wire Line
	1650 2950 1450 2950
Connection ~ 1450 2950
Wire Wire Line
	1650 2850 1550 2850
Wire Wire Line
	1550 2850 1550 3150
Wire Wire Line
	1550 3150 3150 3150
Wire Wire Line
	1650 2250 1450 2250
Wire Wire Line
	1450 2250 1450 2100
$Comp
L +BATT #PWR8
U 1 1 5966FD30
P 1450 2100
F 0 "#PWR8" H 1450 1950 50  0001 C CNN
F 1 "+BATT" H 1450 2240 50  0000 C CNN
F 2 "" H 1450 2100 50  0001 C CNN
F 3 "" H 1450 2100 50  0001 C CNN
	1    1450 2100
	1    0    0    -1  
$EndComp
Wire Wire Line
	1250 2450 1650 2450
Wire Wire Line
	1650 2550 1250 2550
Wire Wire Line
	1250 2650 1650 2650
Wire Wire Line
	1650 2750 1250 2750
Wire Wire Line
	5500 2550 5500 2950
Wire Wire Line
	5500 2950 3150 2950
Wire Wire Line
	3150 2950 3150 3150
Wire Wire Line
	2800 5300 2800 5200
Wire Wire Line
	2800 5200 3150 5200
Wire Wire Line
	2800 4900 2800 5000
Connection ~ 3350 5000
Connection ~ 5350 5000
$Comp
L GND #PWR20
U 1 1 596732E4
P 4800 5300
F 0 "#PWR20" H 4800 5050 50  0001 C CNN
F 1 "GND" H 4800 5150 50  0000 C CNN
F 2 "" H 4800 5300 50  0001 C CNN
F 3 "" H 4800 5300 50  0001 C CNN
	1    4800 5300
	1    0    0    -1  
$EndComp
Wire Wire Line
	4800 4900 4800 5000
Wire Wire Line
	4800 5200 4800 5300
Wire Wire Line
	5700 2650 5700 4250
$Comp
L Screw_Terminal_1x02 J3
U 1 1 5967754D
P 6800 3450
F 0 "J3" H 6800 3700 50  0000 C TNN
F 1 "VCC 5V" V 6650 3450 50  0000 C TNN
F 2 "" H 6800 3225 50  0001 C CNN
F 3 "" H 6775 3450 50  0001 C CNN
	1    6800 3450
	-1   0    0    1   
$EndComp
$Comp
L GND #PWR16
U 1 1 596778A1
P 6450 3650
F 0 "#PWR16" H 6450 3400 50  0001 C CNN
F 1 "GND" H 6450 3500 50  0000 C CNN
F 2 "" H 6450 3650 50  0001 C CNN
F 3 "" H 6450 3650 50  0001 C CNN
	1    6450 3650
	1    0    0    -1  
$EndComp
$Comp
L VCC #PWR15
U 1 1 596778DF
P 6450 3250
F 0 "#PWR15" H 6450 3100 50  0001 C CNN
F 1 "VCC" H 6450 3400 50  0000 C CNN
F 2 "" H 6450 3250 50  0001 C CNN
F 3 "" H 6450 3250 50  0001 C CNN
	1    6450 3250
	1    0    0    -1  
$EndComp
Wire Wire Line
	6600 3550 6450 3550
$Comp
L PWR_FLAG #FLG1
U 1 1 59677B30
P 9500 650
F 0 "#FLG1" H 9500 725 50  0001 C CNN
F 1 "PWR_FLAG" H 9500 800 50  0000 C CNN
F 2 "" H 9500 650 50  0001 C CNN
F 3 "" H 9500 650 50  0001 C CNN
	1    9500 650 
	1    0    0    -1  
$EndComp
$Comp
L PWR_FLAG #FLG2
U 1 1 59677C14
P 9950 650
F 0 "#FLG2" H 9950 725 50  0001 C CNN
F 1 "PWR_FLAG" H 9950 800 50  0000 C CNN
F 2 "" H 9950 650 50  0001 C CNN
F 3 "" H 9950 650 50  0001 C CNN
	1    9950 650 
	1    0    0    -1  
$EndComp
$Comp
L PWR_FLAG #FLG3
U 1 1 59677C5E
P 10400 650
F 0 "#FLG3" H 10400 725 50  0001 C CNN
F 1 "PWR_FLAG" H 10400 800 50  0000 C CNN
F 2 "" H 10400 650 50  0001 C CNN
F 3 "" H 10400 650 50  0001 C CNN
	1    10400 650 
	1    0    0    -1  
$EndComp
$Comp
L PWR_FLAG #FLG4
U 1 1 59677CA8
P 10850 650
F 0 "#FLG4" H 10850 725 50  0001 C CNN
F 1 "PWR_FLAG" H 10850 800 50  0000 C CNN
F 2 "" H 10850 650 50  0001 C CNN
F 3 "" H 10850 650 50  0001 C CNN
	1    10850 650 
	1    0    0    -1  
$EndComp
$Comp
L +9V #PWR3
U 1 1 59677CDF
P 10400 750
F 0 "#PWR3" H 10400 600 50  0001 C CNN
F 1 "+9V" H 10400 890 50  0000 C CNN
F 2 "" H 10400 750 50  0001 C CNN
F 3 "" H 10400 750 50  0001 C CNN
	1    10400 750 
	-1   0    0    1   
$EndComp
$Comp
L +BATT #PWR4
U 1 1 59677D1D
P 10850 750
F 0 "#PWR4" H 10850 600 50  0001 C CNN
F 1 "+BATT" H 10850 890 50  0000 C CNN
F 2 "" H 10850 750 50  0001 C CNN
F 3 "" H 10850 750 50  0001 C CNN
	1    10850 750 
	-1   0    0    1   
$EndComp
$Comp
L GND #PWR1
U 1 1 59677D5B
P 9500 750
F 0 "#PWR1" H 9500 500 50  0001 C CNN
F 1 "GND" H 9500 600 50  0000 C CNN
F 2 "" H 9500 750 50  0001 C CNN
F 3 "" H 9500 750 50  0001 C CNN
	1    9500 750 
	1    0    0    -1  
$EndComp
$Comp
L VCC #PWR2
U 1 1 59677D99
P 9950 750
F 0 "#PWR2" H 9950 600 50  0001 C CNN
F 1 "VCC" H 9950 900 50  0000 C CNN
F 2 "" H 9950 750 50  0001 C CNN
F 3 "" H 9950 750 50  0001 C CNN
	1    9950 750 
	-1   0    0    1   
$EndComp
Wire Wire Line
	9500 650  9500 750 
Wire Wire Line
	9950 650  9950 750 
Wire Wire Line
	10400 650  10400 750 
Wire Wire Line
	10850 650  10850 750 
$Comp
L R R3
U 1 1 596783CE
P 3700 4000
F 0 "R3" V 3780 4000 50  0000 C CNN
F 1 "1K2" V 3700 4000 50  0000 C CNN
F 2 "" V 3630 4000 50  0001 C CNN
F 3 "" H 3700 4000 50  0001 C CNN
	1    3700 4000
	1    0    0    -1  
$EndComp
Wire Wire Line
	3700 2150 3700 3850
Wire Wire Line
	3700 4150 3700 4250
NoConn ~ 3800 1650
NoConn ~ 3800 1750
NoConn ~ 3800 1850
NoConn ~ 5300 1850
$Comp
L CONN_01X06 J1
U 1 1 596894BA
P 6800 2300
F 0 "J1" H 6800 2650 50  0000 C CNN
F 1 "RC receiver" V 6900 2300 50  0000 C CNN
F 2 "" H 6800 2300 50  0001 C CNN
F 3 "" H 6800 2300 50  0001 C CNN
	1    6800 2300
	1    0    0    -1  
$EndComp
Wire Wire Line
	6450 3250 6450 3350
Wire Wire Line
	6450 3350 6600 3350
Wire Wire Line
	6450 3550 6450 3650
$EndSCHEMATC
